
[
	{
	"PropertyName": "81 TUSCANY RAVINE View NW",
	"Address": "Calgary Alberta T3L 2W3",
	"Description": "Gorgeous home with character in prime Tuscany location on a quiet street across from a park. and just minutes to the ravine and pathways within walking distance to many schools. This unique home features solid pine woodwork throughout as well as maple hardwood flooring. The main floor offers vaulted living room ceilings with exposed beams.stone facing gas fireplace. den/flex room. gas stove. solid cabinetry. corner pantry. and breakfast bar.The upper level has 3 bedrooms including the master with walk in closet and soaker tub. The basement is partly finished and awaits finishing touches to complete it into an indoor hockey rink (with a side space to create their very own locker room!) or it could also be turned into a family recreation room! (No need to worry about the kids marking up or putting dents/holes in the lower part of the walls in the basement with the 3/4 inch wood surface with steel stud framing behind it protecting them). The west facing yard is fenced and landscaped with a deck.",
	"Amount": "517000",
	"Status": "Active",
	"ListingStatus": "Price Decrease",
	"Category": "ONE PERCENT REALTY",
	"Beds": "3",
	"TotalBath": "2.1",
	"Area": "1841",
	"BuildYear": "2003",
	"NoOfStorey": "2"
	},
	{
	"PropertyName": "978 TUSCANY Drive NW",
	"Address": "Calgary Alberta T3L 2T4",
	"Description": "Tuscany Estates custom appointed Albi Monticello! Beautiful located across from spacious park. public and separate schools! European inspired exterior. with handsome details and roof lines. Tastefully decorated with care. principal areas recently repainted in pale shades of grey. Large foyer. with soaring ceilings. giving access also directly to the rear south garden. Reverse style floor plan. bright living room with 10 ` ceilings. built ins. fireplace. plus faces the south. with nice views of the perennial gardens. shrubs and trees. Sunken formal or informal dining room. 10 ` ceilings again. Large galley kitchen with newer granite countertops. menu/computer area. maple cabinets. plus a walk through pantry to the laundry/mud room. Lots of interesting built ins. Three bedrooms. two with corner windows. Master enjoys vistas of the mountains. Master ensuite has many newer upgrades as well. Very generous walk in closet! Very open lower level plan. perfect for the family! Certainly living comfortably in style.Additional Remarks: Clean and bright! Many recent renovations. The shingles were replaced only three years ago! No Poly B plumbing lines.",
	"Amount": "548750",
	"Status": "Active",
	"ListingStatus": "New Listing",
	"Category": "CIR REALTY",
	"Beds": "3",
	"TotalBath": "3.1",
	"Area": "1858",
	"BuildYear": "2002",
	"NoOfStorey": "2"
	},
	{
	"PropertyName": "767 TUSCANY Drive NW",
	"Address": "Calgary Alberta T3L 3A4",
	"Description": "Lovingly cared for 4 bedroom. 3.5 bathroom family home in the desirable community of Tuscany has everything you deserve along with all the space you need. Ideal open and bright floor plan makes hosting gatherings a breeze between the large living room with gas fireplace. terrific kitchen with breakfast bar and dining area. Head on out to the backyard with large deck -- great size for a BBQ and furniture. patio. green space and shed. Spend time together as a family on the second level in the spacious bonus room and retreat to the master bedroom at the end of the day to relax and unwind in the ensuite soaker tub. Fully finished basement is great for a teenage retreat or for guests with the large rec room. 4th bedroom. and 3pc bath. Located near the Tuscany Club. restaurants. grocery stores. great schools. Tuscany LRT Station. 12 Mile Coulee off-leash park. and close to Crowchild Trail.",
	"Amount": "497900",
	"Status": "Active",
	"ListingStatus": "Price Decrease",
	"Category": "CHAMBERLAIN REAL ESTATE GROUP",
	"Beds": "4",
	"TotalBath": "3.1",
	"Area": "1863",
	"BuildYear": "2005",
	"NoOfStorey": "2"
	},
	{
	"PropertyName": "9 TUSCANY VISTA Court NW",
	"Address": "Calgary Alberta T3L 3B5",
	"Description": "Turnkey 2Storey home with over 2500sqft is steps from a playground and on a Cul-de-sac! The main boasts an open concept floor plan with 9ft ceilings. wood flooring throughout. and a chefs kitchen featuring a large island. ample countertop space. a pantry and much more. The large master suite features an ensuite with an extra deep corner soaker tub. separate glass enclosed shower and walk-in closet. Upstairs there is an additional two large bedrooms and a 4 piece bathroom. Downstairs was recently developed and features a wet bar w/granite countertops. in-floor heating in the 4 piece bathroom and bar. a large recreation room and 4th bedroom or craft room. Enjoy the summer months on your 2-tiered deck in your south facing fully landscaped backyard. This family home is located on coveted Tuscany Vista which is a no-thru road in the heart of Tuscany. close to schools. parks and public transportation. Note: Open house Saturday is cancelled.",
	"Amount": "569900",
	"Status": "Active",
	"ListingStatus": "New Listing",
	"Category": "URBAN-REALTY.ca",
	"Beds": "4",
	"TotalBath": "3.1",
	"Area": "1765",
	"BuildYear": "2004",
	"NoOfStorey": "2"
	},
	{
	"PropertyName": "378 Tuscany Drive NW",
	"Address": "Calgary Alberta T3L 2W6",
	"Description": "BUILT TO LAST! This 2300+ sq. ft. ORIGINAL OWNER custom built 2-storey home is situated on a CORNER lot in the family friendly northwest community of TUSCANY. Showcasing a bright and open main floor with multiple windows. 9 ft. ceiling. entertainment-size sunroom. efficient kitchen with walkthrough pantry and a family size eating bar. The upper floor feature 3 adult size bedrooms each with a walk-in closet and a full bathroom. The WALK-UP basement is the perfect template for an in-law suite or daycare. It is fully finished with a 4th bedroom. full bathroom and 2nd fireplace. BONUS: Covered deck for all season use of the gas barbeque. Close to schools. shopping. public transportation and playgrounds. CALL NOW TO VIEW!",
	"Amount": "599900",
	"Status": "Active",
	"ListingStatus": "Price Decrease",
	"Category": "RE/MAX REAL ESTATE (MOUNTAIN VIEW)",
	"Beds": "4",
	"TotalBath": "4.0999999999999996",
	"Area": "2328",
	"BuildYear": "2004",
	"NoOfStorey": "2"
	},
	{
	"PropertyName": "783 TUSCANY Drive NW",
	"Address": "Calgary Alberta T3L 3A4",
	"Description": "efrf",
	"Amount": "455000",
	"Status": "Sold",
	"ListingStatus": "",
	"Category": "CENTURY 21 BAMBER REALTY LTD.",
	"Beds": "3",
	"TotalBath": "2.1",
	"Area": "1755",
	"BuildYear": "2005",
	"NoOfStorey": "2"
	},
	{
	"PropertyName": "151 TUSCANY RIDGE Close NW",
	"Address": "Calgary Alberta T3L 2K6",
	"Description": "If you’ve been searching for the perfect family home at an unbelievable price in the Estates neighbourhood of Tuscany. look no further! This beautiful 2 story Albi home is within walking distance to St. Basil Catholic School and Tuscany Elementary School. as well as the community shopping plaza where you’ll find everything you need. Your new home welcomes you into the spacious cathedral entryway of this inviting open concept home. High-end site finished walnut hardwood flooring flows throughout the main level and bonus room. adding an elegance rarely found at this price. The kitchen boasts a large center island with raised breakfast bar. Stainless Steel appliances include a gas range and new dishwasher. A large walk through pantry adds to the already ample cupboard space. A sunny breakfast nook can easily accommodate a large table and easy access to your oversized back deck. Natural light fills a living room that centers around a cozy fireplace.Additional Remarks: The formal dining room could also function as a flex room/den. A 2p. bath and large walk-through laundry/mud room complete this level. (Upstairs. you will be delighted to find a large bonus room with a vaulted ceiling. 2 generously sized kid bedrooms. a full bath and the spacious master suite. The master suite features a walk-in closet and 4 piece ensuite with corner soaker tub. The lower level has even more to offer with a gym/games room. family/play room. 4th bedroom. 3 piece bath. office and storage room. Outside. your landscaped yard includes a large deck with gas line. mature trees that provide privacy in the summer months and plenty of space to play! An oversized double attached garage completes this wonderful home. At this price. we don’t expect this home to last! Book your showing today before it’s gone to avoid disappointment! Possession date is flexible.",
	"Amount": "542500",
	"Status": "Sold",
	"ListingStatus": "",
	"Category": "RE/MAX HOUSE OF REAL ESTATE",
	"Beds": "4",
	"TotalBath": "3.1",
	"Area": "2087",
	"BuildYear": "2002",
	"NoOfStorey": "2"
	}
]
	
	